{
    "name": "Datacleanse",
    "alias": "datacleanse",
    "description": "",
    "keywords": [],
    "order": 0,
    "providers": [
        "Modules\\Datacleanse\\Providers\\DatacleanseServiceProvider"
    ],
    "aliases": {},
    "files": [],
    "requires": []
}
